\relax 
\babel@aux{croatian}{}
\@writefile{toc}{\contentsline {chapter}{\numberline {1}Uvod}{1}}
\@writefile{lof}{\addvspace {10\p@ }}
\@writefile{lot}{\addvspace {10\p@ }}
\@writefile{loequ}{\addvspace {10\p@ }}
\@writefile{toc}{\contentsline {section}{\numberline {1.1}Primjena sustava za raspoznavanje prometnih znakova}{1}}
\@writefile{toc}{\contentsline {chapter}{\numberline {2}Strojno u\IeC {\v c}enje i neuronske mre\IeC {\v z}e}{2}}
\@writefile{lof}{\addvspace {10\p@ }}
\@writefile{lot}{\addvspace {10\p@ }}
\@writefile{loequ}{\addvspace {10\p@ }}
\@writefile{toc}{\contentsline {section}{\numberline {2.1}Nedostaci strojnog u\IeC {\v c}enja}{2}}
\@writefile{toc}{\contentsline {subsection}{\numberline {2.1.1}Unakrsna provjera}{3}}
\@writefile{toc}{\contentsline {section}{\numberline {2.2}Neuronske mre\IeC {\v z}e}{3}}
\@writefile{toc}{\contentsline {subsection}{\numberline {2.2.1}Arhitektura neuronske mre\IeC {\v z}e}{3}}
\@writefile{toc}{\contentsline {subsection}{\numberline {2.2.2}Analiza unutar neurona}{4}}
\@writefile{loequ}{\contentsline {equ}{\numberline {2.1}{\ignorespaces Vrijednost aktiviranog neurona\relax }}{4}}
\@writefile{loequ}{\contentsline {equ}{\numberline {2.2}{\ignorespaces Sigmoidna funkcija\relax }}{4}}
\@writefile{loequ}{\contentsline {equ}{\numberline {2.3}{\ignorespaces Kona\IeC {\v c}na funkcija aktivacije\relax }}{5}}
\@writefile{toc}{\contentsline {subsection}{\numberline {2.2.3}U\IeC {\v c}enje neuronske mre\IeC {\v z}e}{5}}
\@writefile{loequ}{\contentsline {equ}{\numberline {2.4}{\ignorespaces Gradijent funkcije\relax }}{5}}
\@writefile{toc}{\contentsline {chapter}{\numberline {3}Implementacija sustava}{7}}
\@writefile{lof}{\addvspace {10\p@ }}
\@writefile{lot}{\addvspace {10\p@ }}
\@writefile{loequ}{\addvspace {10\p@ }}
\@writefile{toc}{\contentsline {section}{\numberline {3.1}Implementacija pomo\IeC {\'c}u transformacija i analize boje}{7}}
\@writefile{toc}{\contentsline {subsection}{\numberline {3.1.1}Houghova transformacija i njezina primjena}{7}}
\@writefile{toc}{\contentsline {subsubsection}{Houghova transformacija za pravac}{8}}
\@writefile{lof}{\contentsline {figure}{\numberline {3.1}{\ignorespaces Polarna jednad\IeC {\v z}ba pravca\relax }}{8}}
\providecommand*\caption@xref[2]{\@setref\relax\@undefined{#1}}
\newlabel{fig:polar}{{3.1}{8}}
\@writefile{loa}{\contentsline {algorithm}{\numberline {1}{\ignorespaces Houghova transformacija\relax }}{9}}
\newlabel{algo:hough_transform}{{1}{9}}
\@writefile{toc}{\contentsline {subsection}{\numberline {3.1.2}Analiza boje}{9}}
\@writefile{lof}{\contentsline {figure}{\numberline {3.2}{\ignorespaces Spektar boja kod HSV na\IeC {\v c}ina zadavanja\relax }}{9}}
\newlabel{fig:hsv}{{3.2}{9}}
\@writefile{toc}{\contentsline {subsection}{\numberline {3.1.3}Nedostaci pristupa}{10}}
\@writefile{toc}{\contentsline {section}{\numberline {3.2}Implementacija konvolucijskom mre\IeC {\v z}om}{11}}
\@writefile{lof}{\contentsline {figure}{\numberline {3.3}{\ignorespaces Implementirana konvolucijska mre\IeC {\v z}a\relax }}{11}}
\newlabel{fig:neural_network}{{3.3}{11}}
\@writefile{toc}{\contentsline {subsection}{\numberline {3.2.1}Obrada ulaznog skupa podataka}{12}}
\@writefile{toc}{\contentsline {subsection}{\numberline {3.2.2}Priprema konvolucijske mre\IeC {\v z}e}{12}}
\@writefile{lol}{\contentsline {lstlisting}{\numberline {3.1}Sekvencijski model}{12}}
\@writefile{toc}{\contentsline {subsection}{\numberline {3.2.3}Arhitektura mre\IeC {\v z}e}{13}}
\@writefile{toc}{\contentsline {subsubsection}{Ulazni dio}{13}}
\@writefile{lol}{\contentsline {lstlisting}{\numberline {3.2}Ulazni dio}{13}}
\@writefile{toc}{\contentsline {subsubsection}{Sredi\IeC {\v s}nji dio}{13}}
\@writefile{toc}{\contentsline {subsubsection}{Izlazni dio}{13}}
\@writefile{lol}{\contentsline {lstlisting}{\numberline {3.3}Izlazni dio}{13}}
\@writefile{toc}{\contentsline {subsection}{\numberline {3.2.4}Treniranje mre\IeC {\v z}e}{14}}
\@writefile{lol}{\contentsline {lstlisting}{\numberline {3.4}Konfiguracija procesa u\IeC {\v c}enja}{14}}
\@writefile{lol}{\contentsline {lstlisting}{\numberline {3.5}Pokretanje treniranja}{14}}
\@writefile{toc}{\contentsline {subsection}{\numberline {3.2.5}TensorBoard i proces treniranja}{15}}
\@writefile{lot}{\contentsline {table}{\numberline {3.1}{\ignorespaces Skup za treniranje\relax }}{15}}
\newlabel{tbl:treniranje}{{3.1}{15}}
\@writefile{toc}{\contentsline {chapter}{\numberline {4}Rezultati implementiranog sustava}{16}}
\@writefile{lof}{\addvspace {10\p@ }}
\@writefile{lot}{\addvspace {10\p@ }}
\@writefile{loequ}{\addvspace {10\p@ }}
\@writefile{lot}{\contentsline {table}{\numberline {4.1}{\ignorespaces Rezultati testiranje\relax }}{16}}
\newlabel{tbl:testiranje}{{4.1}{16}}
\@writefile{loequ}{\contentsline {equ}{\numberline {4.1}{\ignorespaces Ukupna to\IeC {\v c}nost\relax }}{17}}
\@writefile{loequ}{\contentsline {equ}{\numberline {4.2}{\ignorespaces Ukupna neuspje\IeC {\v s}nost\relax }}{17}}
\@writefile{loequ}{\contentsline {equ}{\numberline {4.3}{\ignorespaces Odziv\relax }}{17}}
\@writefile{loequ}{\contentsline {equ}{\numberline {4.4}{\ignorespaces F1 mjera\relax }}{17}}
\@writefile{lot}{\contentsline {table}{\numberline {4.2}{\ignorespaces Matrica zabune\relax }}{18}}
\newlabel{tbl:rezultati}{{4.2}{18}}
\@writefile{lot}{\contentsline {table}{\numberline {4.3}{\ignorespaces Odziv, preciznost i F1 mjera po kategorijama\relax }}{18}}
\newlabel{tbl:konstante}{{4.3}{18}}
\@writefile{toc}{\contentsline {chapter}{\numberline {5}Kori\IeC {\v s}teni alati i tehnologije}{19}}
\@writefile{lof}{\addvspace {10\p@ }}
\@writefile{lot}{\addvspace {10\p@ }}
\@writefile{loequ}{\addvspace {10\p@ }}
\@writefile{toc}{\contentsline {section}{\numberline {5.1}Python}{19}}
\@writefile{toc}{\contentsline {section}{\numberline {5.2}Tensorflow}{19}}
\@writefile{toc}{\contentsline {section}{\numberline {5.3}OpenCV}{20}}
\bibdata{literatura}
\@writefile{toc}{\contentsline {chapter}{\numberline {6}Zaklju\IeC {\v c}ak}{21}}
\@writefile{lof}{\addvspace {10\p@ }}
\@writefile{lot}{\addvspace {10\p@ }}
\@writefile{loequ}{\addvspace {10\p@ }}
\bibstyle{fer}
\@writefile{toc}{\contentsline {chapter}{Literatura}{22}}
\@writefile{toc}{\contentsline {chapter}{Popis slika}{23}}
\@writefile{toc}{\contentsline {chapter}{Popis tablica}{24}}
